10008.jpg
10028.jpg
10038.jpg
10048.jpg
10058.jpg
10068.jpg
10078.jpg
1008.jpg
10088.jpg
10098.jpg
10108.jpg
10118.jpg
10138.jpg
10148.jpg
10158.jpg
10168.jpg
10178.jpg
10188.jpg
10198.jpg
10208.jpg
10218.jpg
10238.jpg
10248.jpg
10258.jpg
10268.jpg
10278.jpg
10288.jpg
10298.jpg
10318.jpg
10328.jpg
10348.jpg
10358.jpg
10368.jpg
10378.jpg
10388.jpg
10398.jpg
10408.jpg
10428.jpg
10448.jpg
10458.jpg
10468.jpg
10478.jpg
10498.jpg
10508.jpg
10538.jpg
10548.jpg
10558.jpg
10568.jpg
10588.jpg
10598.jpg
10608.jpg
10618.jpg
10628.jpg
10638.jpg
10648.jpg
10658.jpg
10678.jpg
10688.jpg
10698.jpg
10718.jpg
10728.jpg
10738.jpg
10778.jpg
10788.jpg
10798.jpg
10808.jpg
10838.jpg
10848.jpg
10858.jpg
10868.jpg
1088.jpg
10888.jpg
10898.jpg
10908.jpg
10918.jpg
10928.jpg
10938.jpg
10948.jpg
10958.jpg
10968.jpg
10978.jpg
1098.jpg
10998.jpg
11028.jpg
11048.jpg
11058.jpg
11078.jpg
1108.jpg
11088.jpg
11098.jpg
11108.jpg
11118.jpg
11138.jpg
11148.jpg
1118.jpg
11218.jpg
11228.jpg
11238.jpg
11248.jpg
11258.jpg
11268.jpg
11278.jpg
1128.jpg
11288.jpg
11298.jpg
11308.jpg
11318.jpg
11328.jpg
11338.jpg
11358.jpg
11368.jpg
11378.jpg
1138.jpg
11398.jpg
11408.jpg
11418.jpg
11428.jpg
11438.jpg
11448.jpg
11468.jpg
11478.jpg
1148.jpg
11488.jpg
11498.jpg
11508.jpg
11518.jpg
11528.jpg
11538.jpg
11548.jpg
11558.jpg
11568.jpg
11578.jpg
1158.jpg
11588.jpg
11598.jpg
11608.jpg
11628.jpg
11638.jpg
11648.jpg
11658.jpg
11668.jpg
11678.jpg
1168.jpg
11688.jpg
11698.jpg
11708.jpg
11728.jpg
11738.jpg
11748.jpg
11788.jpg
11828.jpg
11838.jpg
11858.jpg
11878.jpg
1188.jpg
11958.jpg
12008.jpg
12068.jpg
1208.jpg
12118.jpg
12148.jpg
12248.jpg
12278.jpg
1228.jpg
12288.jpg
12328.jpg
1238.jpg
12388.jpg
12398.jpg
1248.jpg
12498.jpg
12518.jpg
12538.jpg
12548.jpg
12558.jpg
12568.jpg
1258.jpg
12608.jpg
12648.jpg
12668.jpg
12678.jpg
12688.jpg
12698.jpg
12708.jpg
12718.jpg
12728.jpg
12738.jpg
12748.jpg
12758.jpg
12768.jpg
12778.jpg
1278.jpg
12788.jpg
12808.jpg
12868.jpg
12878.jpg
12888.jpg
12978.jpg
12988.jpg
13008.jpg
13028.jpg
13038.jpg
13068.jpg
13078.jpg
1308.jpg
13128.jpg
13138.jpg
13168.jpg
13178.jpg
1318.jpg
13188.jpg
13198.jpg
13238.jpg
13248.jpg
13268.jpg
13278.jpg
1328.jpg
13288.jpg
13308.jpg
13328.jpg
13338.jpg
13348.jpg
1338.jpg
13418.jpg
13428.jpg
13448.jpg
13468.jpg
1348.jpg
13488.jpg
13498.jpg
13508.jpg
13538.jpg
13548.jpg
13558.jpg
13568.jpg
13578.jpg
1358.jpg
13588.jpg
13608.jpg
13628.jpg
13648.jpg
13678.jpg
1368.jpg
13698.jpg
13728.jpg
13758.jpg
13788.jpg
13798.jpg
13858.jpg
1388.jpg
13918.jpg
13958.jpg
1398.jpg
14008.jpg
14038.jpg
14048.jpg
14058.jpg
1408.jpg
14148.jpg
14158.jpg
14168.jpg
14188.jpg
14208.jpg
14228.jpg
14298.jpg
14308.jpg
14348.jpg
14368.jpg
14408.jpg
14418.jpg
14428.jpg
14448.jpg
14468.jpg
14478.jpg
14498.jpg
14508.jpg
14518.jpg
14528.jpg
14538.jpg
14558.jpg
14608.jpg
14638.jpg
14648.jpg
14698.jpg
14708.jpg
14728.jpg
14768.jpg
14788.jpg
14808.jpg
14818.jpg
14868.jpg
14888.jpg
14918.jpg
14968.jpg
14978.jpg
15008.jpg
15108.jpg
15118.jpg
15128.jpg
15178.jpg
15198.jpg
15238.jpg
15248.jpg
15258.jpg
15298.jpg
15308.jpg
15328.jpg
15338.jpg
15398.jpg
15408.jpg
15418.jpg
15438.jpg
15458.jpg
15478.jpg
15488.jpg
15508.jpg
15528.jpg
15538.jpg
15548.jpg
15568.jpg
15578.jpg
1558.jpg
15588.jpg
15598.jpg
15608.jpg
15618.jpg
15658.jpg
15668.jpg
15678.jpg
15698.jpg
15728.jpg
15738.jpg
15758.jpg
15768.jpg
15778.jpg
1578.jpg
15808.jpg
15818.jpg
15858.jpg
15868.jpg
1588.jpg
15888.jpg
15898.jpg
15968.jpg
16008.jpg
16018.jpg
16048.jpg
16078.jpg
1608.jpg
16098.jpg
16118.jpg
16148.jpg
16168.jpg
16188.jpg
16208.jpg
16268.jpg
16288.jpg
16358.jpg
16368.jpg
16378.jpg
16408.jpg
16418.jpg
16548.jpg
16558.jpg
16568.jpg
16578.jpg
16608.jpg
16638.jpg
16668.jpg
16678.jpg
16708.jpg
16718.jpg
16728.jpg
16738.jpg
16758.jpg
16768.jpg
16778.jpg
16818.jpg
16838.jpg
16848.jpg
16858.jpg
16888.jpg
16928.jpg
16948.jpg
16968.jpg
16988.jpg
16998.jpg
17038.jpg
17048.jpg
17058.jpg
1708.jpg
17118.jpg
17128.jpg
17138.jpg
17158.jpg
17188.jpg
17198.jpg
17228.jpg
17268.jpg
17308.jpg
17328.jpg
17368.jpg
17378.jpg
17388.jpg
17408.jpg
17418.jpg
17428.jpg
17478.jpg
17488.jpg
17508.jpg
17538.jpg
17548.jpg
17568.jpg
17578.jpg
17588.jpg
17598.jpg
17628.jpg
17668.jpg
17678.jpg
17698.jpg
17718.jpg
17728.jpg
17748.jpg
17758.jpg
17768.jpg
17778.jpg
1778.jpg
17788.jpg
17798.jpg
17808.jpg
17818.jpg
17828.jpg
17838.jpg
17898.jpg
17938.jpg
17948.jpg
17958.jpg
17968.jpg
17978.jpg
17988.jpg
17998.jpg
18008.jpg
18028.jpg
18038.jpg
18078.jpg
18088.jpg
18098.jpg
18108.jpg
18118.jpg
18128.jpg
18138.jpg
18148.jpg
18158.jpg
18168.jpg
18178.jpg
18188.jpg
18208.jpg
18218.jpg
18228.jpg
18248.jpg
18258.jpg
18268.jpg
18278.jpg
18328.jpg
18358.jpg
18368.jpg
18378.jpg
18398.jpg
18408.jpg
18418.jpg
18428.jpg
18448.jpg
18458.jpg
18468.jpg
18478.jpg
18498.jpg
18508.jpg
18518.jpg
18558.jpg
18598.jpg
18628.jpg
18648.jpg
18758.jpg
18778.jpg
18788.jpg
18818.jpg
18828.jpg
18838.jpg
18848.jpg
18858.jpg
18868.jpg
18878.jpg
18888.jpg
18898.jpg
18938.jpg
18948.jpg
18958.jpg
18978.jpg
18998.jpg
19008.jpg
19028.jpg
19058.jpg
19068.jpg
19088.jpg
19108.jpg
19128.jpg
19138.jpg
19158.jpg
19198.jpg
19218.jpg
19238.jpg
19248.jpg
19258.jpg
19268.jpg
19278.jpg
19288.jpg
19298.jpg
19308.jpg
19318.jpg
19328.jpg
19338.jpg
19348.jpg
19358.jpg
19398.jpg
19408.jpg
19458.jpg
19488.jpg
19508.jpg
19528.jpg
19558.jpg
19578.jpg
19598.jpg
19618.jpg
19638.jpg
19648.jpg
19658.jpg
19668.jpg
19678.jpg
19698.jpg
19718.jpg
19728.jpg
19738.jpg
19748.jpg
19758.jpg
19768.jpg
19778.jpg
19788.jpg
19808.jpg
19828.jpg
19858.jpg
19868.jpg
1988.jpg
19908.jpg
19948.jpg
19958.jpg
19978.jpg
1998.jpg
20008.jpg
20018.jpg
20058.jpg
20068.jpg
20078.jpg
2008.jpg
20088.jpg
20108.jpg
20118.jpg
20128.jpg
20138.jpg
20148.jpg
20158.jpg
20168.jpg
20178.jpg
2018.jpg
20188.jpg
20238.jpg
20298.jpg
20338.jpg
20348.jpg
20358.jpg
20428.jpg
20448.jpg
20458.jpg
20468.jpg
20478.jpg
20488.jpg
20498.jpg
20508.jpg
20518.jpg
20528.jpg
20548.jpg
20568.jpg
2058.jpg
20628.jpg
20638.jpg
20668.jpg
20678.jpg
2068.jpg
20688.jpg
20708.jpg
20718.jpg
20758.jpg
20768.jpg
2078.jpg
20808.jpg
20838.jpg
20848.jpg
20858.jpg
20888.jpg
20898.jpg
20908.jpg
20918.jpg
20928.jpg
20958.jpg
20968.jpg
20978.jpg
2098.jpg
21018.jpg
21048.jpg
21058.jpg
2108.jpg
21118.jpg
21168.jpg
21178.jpg
2118.jpg
21218.jpg
21238.jpg
21308.jpg
21318.jpg
21328.jpg
2138.jpg
21418.jpg
21428.jpg
21458.jpg
21478.jpg
2148.jpg
21518.jpg
21528.jpg
21548.jpg
21578.jpg
2158.jpg
21588.jpg
21598.jpg
21608.jpg
21618.jpg
21628.jpg
21648.jpg
21658.jpg
21668.jpg
2168.jpg
21688.jpg
21728.jpg
21738.jpg
21768.jpg
21778.jpg
2178.jpg
21798.jpg
21808.jpg
21848.jpg
21858.jpg
21868.jpg
2188.jpg
21908.jpg
21918.jpg
21938.jpg
22008.jpg
22028.jpg
2208.jpg
22118.jpg
22128.jpg
22138.jpg
22148.jpg
22158.jpg
22168.jpg
22178.jpg
2218.jpg
22188.jpg
22218.jpg
22228.jpg
22248.jpg
22258.jpg
2228.jpg
22288.jpg
22298.jpg
22328.jpg
22338.jpg
22368.jpg
2238.jpg
22408.jpg
22448.jpg
22458.jpg
2248.jpg
22488.jpg
22498.jpg
22508.jpg
22548.jpg
22578.jpg
2258.jpg
22588.jpg
22598.jpg
22628.jpg
22648.jpg
22668.jpg
22678.jpg
2268.jpg
22688.jpg
22698.jpg
22718.jpg
22728.jpg
22738.jpg
22748.jpg
22758.jpg
22768.jpg
22778.jpg
2278.jpg
22788.jpg
22798.jpg
22818.jpg
22828.jpg
22838.jpg
22878.jpg
2288.jpg
22908.jpg
22918.jpg
22928.jpg
22938.jpg
22948.jpg
22958.jpg
22968.jpg
2298.jpg
22988.jpg
22998.jpg
23018.jpg
23028.jpg
23048.jpg
23058.jpg
2308.jpg
23098.jpg
23108.jpg
23128.jpg
23138.jpg
23168.jpg
2318.jpg
23198.jpg
23208.jpg
23238.jpg
23248.jpg
2328.jpg
23308.jpg
23328.jpg
23338.jpg
23348.jpg
23358.jpg
23368.jpg
23378.jpg
2338.jpg
23398.jpg
23438.jpg
23498.jpg
23518.jpg
23528.jpg
23548.jpg
23558.jpg
23578.jpg
23588.jpg
23608.jpg
23638.jpg
23648.jpg
23658.jpg
23678.jpg
2368.jpg
23688.jpg
23708.jpg
23718.jpg
23738.jpg
23748.jpg
23758.jpg
23788.jpg
23818.jpg
23838.jpg
23848.jpg
2388.jpg
23908.jpg
23918.jpg
23928.jpg
23958.jpg
23988.jpg
23998.jpg
24008.jpg
24018.jpg
24028.jpg
24068.jpg
2408.jpg
24088.jpg
24108.jpg
24148.jpg
24158.jpg
24238.jpg
24258.jpg
24298.jpg
24308.jpg
24328.jpg
24348.jpg
24398.jpg
24418.jpg
24428.jpg
24458.jpg
24478.jpg
24488.jpg
24648.jpg
24668.jpg
24688.jpg
24698.jpg
24708.jpg
24728.jpg
24778.jpg
24798.jpg
24848.jpg
2488.jpg
24908.jpg
24958.jpg
24968.jpg
24978.jpg
2498.jpg
25058.jpg
2508.jpg
25118.jpg
25158.jpg
25178.jpg
2518.jpg
25208.jpg
25228.jpg
25248.jpg
25298.jpg
25308.jpg
25338.jpg
2538.jpg
2548.jpg
25488.jpg
25528.jpg
25568.jpg
2558.jpg
25608.jpg
25628.jpg
25638.jpg
25648.jpg
25668.jpg
25678.jpg
2568.jpg
25718.jpg
25728.jpg
25748.jpg
25758.jpg
25768.jpg
25848.jpg
25868.jpg
2588.jpg
25958.jpg
25968.jpg
26028.jpg
26038.jpg
2608.jpg
26098.jpg
26118.jpg
26128.jpg
26138.jpg
26148.jpg
26158.jpg
26168.jpg
2618.jpg
26188.jpg
26238.jpg
26278.jpg
2628.jpg
26288.jpg
26298.jpg
26318.jpg
26328.jpg
26338.jpg
26368.jpg
2638.jpg
26398.jpg
26428.jpg
26438.jpg
26498.jpg
26518.jpg
26528.jpg
2658.jpg
26588.jpg
26598.jpg
26618.jpg
26628.jpg
26638.jpg
26658.jpg
2668.jpg
26688.jpg
26708.jpg
26718.jpg
26728.jpg
2678.jpg
26808.jpg
26848.jpg
26868.jpg
26878.jpg
2688.jpg
26888.jpg
26898.jpg
26918.jpg
26928.jpg
26938.jpg
26958.jpg
26968.jpg
26978.jpg
26998.jpg
27008.jpg
27028.jpg
27038.jpg
27048.jpg
27088.jpg
27108.jpg
27118.jpg
27128.jpg
27138.jpg
27208.jpg
27228.jpg
27238.jpg
27348.jpg
27378.jpg
27408.jpg
27428.jpg
27438.jpg
27458.jpg
27468.jpg
27478.jpg
27488.jpg
27508.jpg
27558.jpg
27578.jpg
27608.jpg
27618.jpg
27628.jpg
27638.jpg
27648.jpg
27678.jpg
2768.jpg
27688.jpg
2778.jpg
2788.jpg
2798.jpg
28.jpg
2808.jpg
2818.jpg
2828.jpg
2838.jpg
2848.jpg
2858.jpg
2868.jpg
2888.jpg
2898.jpg
2908.jpg
2918.jpg
2928.jpg
2938.jpg
2948.jpg
2958.jpg
2968.jpg
2978.jpg
2988.jpg
2998.jpg
30028.jpg
30038.jpg
30048.jpg
30058.jpg
30068.jpg
30078.jpg
3008.jpg
30088.jpg
30098.jpg
30118.jpg
30128.jpg
30138.jpg
30148.jpg
30158.jpg
30168.jpg
30178.jpg
3018.jpg
30188.jpg
30198.jpg
30208.jpg
30218.jpg
30228.jpg
30238.jpg
30248.jpg
30258.jpg
30268.jpg
3028.jpg
30288.jpg
30298.jpg
30308.jpg
30318.jpg
30328.jpg
30338.jpg
30348.jpg
30358.jpg
30368.jpg
30378.jpg
3038.jpg
30388.jpg
30398.jpg
30428.jpg
30448.jpg
30458.jpg
30468.jpg
3048.jpg
30488.jpg
30498.jpg
30508.jpg
30528.jpg
30538.jpg
30548.jpg
30558.jpg
30568.jpg
30578.jpg
3058.jpg
30588.jpg
30608.jpg
30618.jpg
30628.jpg
30638.jpg
30648.jpg
30658.jpg
30668.jpg
30678.jpg
3068.jpg
30688.jpg
30698.jpg
30708.jpg
30728.jpg
30738.jpg
30758.jpg
30768.jpg
30778.jpg
3078.jpg
30788.jpg
30798.jpg
30808.jpg
30818.jpg
30828.jpg
30838.jpg
30848.jpg
30868.jpg
30878.jpg
3088.jpg
30888.jpg
30898.jpg
30908.jpg
30918.jpg
30938.jpg
30948.jpg
30958.jpg
30968.jpg
30978.jpg
3098.jpg
30988.jpg
31008.jpg
31028.jpg
31038.jpg
31048.jpg
31058.jpg
31068.jpg
31078.jpg
3108.jpg
31088.jpg
31098.jpg
31118.jpg
31138.jpg
31148.jpg
31158.jpg
31168.jpg
31178.jpg
3118.jpg
31188.jpg
31198.jpg
31208.jpg
31228.jpg
31238.jpg
31248.jpg
31258.jpg
31268.jpg
31278.jpg
3128.jpg
31288.jpg
31298.jpg
31308.jpg
31318.jpg
31328.jpg
31348.jpg
31378.jpg
3138.jpg
31398.jpg
31408.jpg
31418.jpg
31428.jpg
31438.jpg
31468.jpg
3148.jpg
31488.jpg
31498.jpg
31508.jpg
31518.jpg
31528.jpg
31538.jpg
31548.jpg
31558.jpg
31568.jpg
31578.jpg
3158.jpg
31588.jpg
31608.jpg
31618.jpg
31628.jpg
31638.jpg
31648.jpg
31658.jpg
31668.jpg
31678.jpg
3168.jpg
31688.jpg
31698.jpg
31718.jpg
31728.jpg
31738.jpg
31748.jpg
31758.jpg
31768.jpg
31778.jpg
31788.jpg
31798.jpg
31808.jpg
31818.jpg
31828.jpg
31838.jpg
31848.jpg
31858.jpg
31868.jpg
31878.jpg
3188.jpg
31888.jpg
31898.jpg
31908.jpg
31918.jpg
31928.jpg
31938.jpg
31948.jpg
31958.jpg
31968.jpg
31978.jpg
3198.jpg
31988.jpg
32018.jpg
32038.jpg
32048.jpg
32058.jpg
32078.jpg
3208.jpg
32088.jpg
32098.jpg
32108.jpg
32118.jpg
32148.jpg
32158.jpg
32168.jpg
32178.jpg
3218.jpg
32188.jpg
32198.jpg
32208.jpg
32218.jpg
32228.jpg
32238.jpg
32248.jpg
32258.jpg
32268.jpg
32278.jpg
32288.jpg
32298.jpg
32308.jpg
32318.jpg
32328.jpg
32338.jpg
32348.jpg
32358.jpg
32368.jpg
32378.jpg
3238.jpg
32388.jpg
32398.jpg
32408.jpg
32418.jpg
32428.jpg
32438.jpg
32448.jpg
32458.jpg
32468.jpg
32478.jpg
3248.jpg
32488.jpg
32498.jpg
32578.jpg
3258.jpg
32588.jpg
32608.jpg
32618.jpg
32628.jpg
32638.jpg
32648.jpg
32658.jpg
32668.jpg
32678.jpg
3268.jpg
32688.jpg
32698.jpg
32718.jpg
32738.jpg
32768.jpg
3278.jpg
32788.jpg
32798.jpg
32808.jpg
32818.jpg
32828.jpg
32838.jpg
32848.jpg
32858.jpg
32868.jpg
32878.jpg
3288.jpg
32888.jpg
3298.jpg
3308.jpg
3318.jpg
3328.jpg
33378.jpg
33398.jpg
33408.jpg
33418.jpg
33428.jpg
33438.jpg
33448.jpg
33468.jpg
33478.jpg
3348.jpg
33488.jpg
33498.jpg
33508.jpg
33518.jpg
33528.jpg
3358.jpg
34138.jpg
34148.jpg
34158.jpg
34168.jpg
34198.jpg
34218.jpg
3488.jpg
3498.jpg
3508.jpg
3518.jpg
3528.jpg
3538.jpg
3548.jpg
35578.jpg
3558.jpg
35588.jpg
35598.jpg
35608.jpg
35618.jpg
35628.jpg
35638.jpg
35648.jpg
35658.jpg
35668.jpg
35678.jpg
3568.jpg
35688.jpg
35718.jpg
35728.jpg
35748.jpg
35758.jpg
35768.jpg
35778.jpg
3578.jpg
35788.jpg
35798.jpg
35808.jpg
35818.jpg
35838.jpg
35858.jpg
35868.jpg
35878.jpg
3588.jpg
35888.jpg
35908.jpg
35918.jpg
35928.jpg
35938.jpg
35968.jpg
35978.jpg
3598.jpg
35988.jpg
35998.jpg
36008.jpg
36018.jpg
36028.jpg
36038.jpg
36048.jpg
36058.jpg
36068.jpg
36078.jpg
3618.jpg
3658.jpg
3668.jpg
3698.jpg
37048.jpg
37068.jpg
37078.jpg
37088.jpg
37098.jpg
37108.jpg
37118.jpg
37128.jpg
37138.jpg
37148.jpg
37158.jpg
37168.jpg
37178.jpg
37198.jpg
37208.jpg
37218.jpg
37228.jpg
37238.jpg
37248.jpg
37258.jpg
37268.jpg
37278.jpg
3728.jpg
37288.jpg
37298.jpg
37308.jpg
37318.jpg
37328.jpg
37338.jpg
37348.jpg
37358.jpg
37368.jpg
37378.jpg
3738.jpg
37388.jpg
37408.jpg
37418.jpg
37428.jpg
37438.jpg
37448.jpg
37458.jpg
37468.jpg
37478.jpg
37488.jpg
37498.jpg
37508.jpg
37518.jpg
37528.jpg
37538.jpg
37548.jpg
37558.jpg
37568.jpg
37578.jpg
3758.jpg
37588.jpg
37598.jpg
37608.jpg
37618.jpg
37628.jpg
37638.jpg
37648.jpg
37668.jpg
37678.jpg
3768.jpg
37688.jpg
37698.jpg
37708.jpg
37718.jpg
37728.jpg
37738.jpg
37748.jpg
37758.jpg
37768.jpg
37778.jpg
37788.jpg
37798.jpg
37808.jpg
37818.jpg
37828.jpg
37838.jpg
37848.jpg
37858.jpg
37868.jpg
37878.jpg
3788.jpg
37888.jpg
37898.jpg
37908.jpg
37928.jpg
37938.jpg
37948.jpg
37958.jpg
37968.jpg
37988.jpg
37998.jpg
38.jpg
38008.jpg
38018.jpg
38028.jpg
38038.jpg
38048.jpg
38068.jpg
38078.jpg
3808.jpg
38088.jpg
38098.jpg
38108.jpg
38118.jpg
38128.jpg
38138.jpg
38148.jpg
38158.jpg
38168.jpg
38178.jpg
3818.jpg
38188.jpg
38198.jpg
38208.jpg
38218.jpg
38248.jpg
38278.jpg
3838.jpg
3848.jpg
3858.jpg
38658.jpg
38678.jpg
3868.jpg
38688.jpg
38708.jpg
38718.jpg
38728.jpg
38738.jpg
38748.jpg
38758.jpg
38768.jpg
38808.jpg
38818.jpg
38838.jpg
38848.jpg
38858.jpg
38878.jpg
38888.jpg
38898.jpg
38918.jpg
38928.jpg
38938.jpg
38948.jpg
38958.jpg
38968.jpg
38978.jpg
3898.jpg
38988.jpg
38998.jpg
39008.jpg
39018.jpg
39028.jpg
39038.jpg
39048.jpg
39058.jpg
39068.jpg
3908.jpg
39088.jpg
39098.jpg
39108.jpg
39118.jpg
39128.jpg
39138.jpg
39148.jpg
39158.jpg
39168.jpg
39178.jpg
3918.jpg
39188.jpg
39198.jpg
39218.jpg
39228.jpg
39238.jpg
39248.jpg
39258.jpg
39268.jpg
39278.jpg
39288.jpg
39298.jpg
39308.jpg
39318.jpg
39328.jpg
39338.jpg
39348.jpg
39358.jpg
39368.jpg
39378.jpg
39388.jpg
39398.jpg
39408.jpg
39418.jpg
39438.jpg
39458.jpg
39468.jpg
39478.jpg
39498.jpg
39508.jpg
39518.jpg
39528.jpg
39538.jpg
39558.jpg
39568.jpg
39578.jpg
39588.jpg
39598.jpg
39608.jpg
39618.jpg
39628.jpg
39638.jpg
39648.jpg
39658.jpg
39668.jpg
39678.jpg
39688.jpg
39698.jpg
39708.jpg
39718.jpg
39728.jpg
39738.jpg
39748.jpg
39758.jpg
39768.jpg
39778.jpg
39788.jpg
39798.jpg
39808.jpg
39828.jpg
39838.jpg
39848.jpg
39858.jpg
39868.jpg
39878.jpg
39888.jpg
39908.jpg
39918.jpg
39928.jpg
39938.jpg
39948.jpg
39958.jpg
39968.jpg
39978.jpg
39998.jpg
40008.jpg
40018.jpg
40028.jpg
40038.jpg
40048.jpg
40058.jpg
40068.jpg
40078.jpg
40088.jpg
40098.jpg
40108.jpg
40118.jpg
40128.jpg
40138.jpg
40148.jpg
40158.jpg
40168.jpg
40178.jpg
40188.jpg
40208.jpg
40228.jpg
40238.jpg
40248.jpg
40258.jpg
40278.jpg
4028.jpg
40288.jpg
40298.jpg
40308.jpg
40328.jpg
40338.jpg
40348.jpg
40358.jpg
40368.jpg
40378.jpg
40388.jpg
40398.jpg
40408.jpg
40418.jpg
40428.jpg
40438.jpg
40448.jpg
40458.jpg
40478.jpg
4048.jpg
40488.jpg
40508.jpg
40528.jpg
40538.jpg
40548.jpg
40558.jpg
40568.jpg
40578.jpg
40598.jpg
40608.jpg
40618.jpg
40628.jpg
40638.jpg
40648.jpg
40658.jpg
40678.jpg
40688.jpg
4078.jpg
4088.jpg
4108.jpg
4118.jpg
4168.jpg
4188.jpg
4218.jpg
4248.jpg
4258.jpg
4268.jpg
4278.jpg
4288.jpg
4298.jpg
4318.jpg
4348.jpg
4428.jpg
4448.jpg
4458.jpg
4488.jpg
4498.jpg
4558.jpg
4618.jpg
4628.jpg
4638.jpg
4658.jpg
4708.jpg
4718.jpg
4728.jpg
4738.jpg
4758.jpg
4768.jpg
4778.jpg
4798.jpg
48.jpg
4818.jpg
4828.jpg
4848.jpg
4858.jpg
4868.jpg
4878.jpg
4888.jpg
4898.jpg
4908.jpg
4938.jpg
4948.jpg
4968.jpg
4978.jpg
4988.jpg
4998.jpg
5008.jpg
5018.jpg
5028.jpg
5038.jpg
5048.jpg
5058.jpg
5088.jpg
5118.jpg
5128.jpg
5138.jpg
5148.jpg
5158.jpg
5168.jpg
5178.jpg
5188.jpg
58.jpg
6208.jpg
6218.jpg
6228.jpg
6238.jpg
6248.jpg
6268.jpg
6288.jpg
6328.jpg
6378.jpg
6398.jpg
6408.jpg
6438.jpg
6448.jpg
6458.jpg
6468.jpg
6478.jpg
6508.jpg
6518.jpg
6528.jpg
6538.jpg
6558.jpg
6568.jpg
6598.jpg
6608.jpg
6618.jpg
6638.jpg
6648.jpg
6658.jpg
6678.jpg
668.jpg
6688.jpg
6698.jpg
6708.jpg
6728.jpg
6738.jpg
6778.jpg
678.jpg
6788.jpg
6798.jpg
6808.jpg
6818.jpg
6848.jpg
6858.jpg
6878.jpg
6888.jpg
6898.jpg
6908.jpg
6928.jpg
6938.jpg
6968.jpg
698.jpg
6988.jpg
7008.jpg
7018.jpg
7038.jpg
7058.jpg
7068.jpg
708.jpg
7088.jpg
7128.jpg
7148.jpg
7158.jpg
7178.jpg
718.jpg
7188.jpg
7198.jpg
7208.jpg
7218.jpg
7228.jpg
7238.jpg
7248.jpg
7268.jpg
7278.jpg
728.jpg
7288.jpg
7298.jpg
7318.jpg
7328.jpg
7338.jpg
7348.jpg
7358.jpg
7368.jpg
7378.jpg
738.jpg
7388.jpg
7398.jpg
7408.jpg
7428.jpg
7438.jpg
7448.jpg
7458.jpg
7468.jpg
7478.jpg
7488.jpg
7498.jpg
7508.jpg
7518.jpg
7528.jpg
7538.jpg
7548.jpg
7568.jpg
7578.jpg
7588.jpg
7598.jpg
7608.jpg
7658.jpg
7668.jpg
7678.jpg
768.jpg
7688.jpg
7698.jpg
7708.jpg
7718.jpg
7728.jpg
7738.jpg
7748.jpg
7758.jpg
7768.jpg
7778.jpg
778.jpg
7788.jpg
7798.jpg
7808.jpg
7818.jpg
7828.jpg
7838.jpg
7848.jpg
7858.jpg
7868.jpg
788.jpg
7888.jpg
7898.jpg
7908.jpg
7918.jpg
7928.jpg
7938.jpg
7948.jpg
7968.jpg
7978.jpg
798.jpg
7998.jpg
8008.jpg
8018.jpg
8028.jpg
8038.jpg
8048.jpg
8058.jpg
8068.jpg
8078.jpg
808.jpg
8088.jpg
8118.jpg
8128.jpg
8138.jpg
8148.jpg
8168.jpg
8178.jpg
818.jpg
8188.jpg
8198.jpg
8208.jpg
8218.jpg
8238.jpg
8248.jpg
8258.jpg
8278.jpg
828.jpg
8288.jpg
8298.jpg
8308.jpg
8318.jpg
8328.jpg
8338.jpg
8358.jpg
8368.jpg
8378.jpg
838.jpg
8388.jpg
8398.jpg
8418.jpg
8438.jpg
8458.jpg
8468.jpg
8478.jpg
848.jpg
8488.jpg
8498.jpg
8508.jpg
8518.jpg
8528.jpg
8538.jpg
8548.jpg
8558.jpg
8568.jpg
858.jpg
8588.jpg
8598.jpg
8608.jpg
8618.jpg
8628.jpg
8638.jpg
8648.jpg
8668.jpg
8678.jpg
868.jpg
8688.jpg
8698.jpg
8708.jpg
8738.jpg
8748.jpg
8758.jpg
8768.jpg
8778.jpg
8808.jpg
8818.jpg
8838.jpg
8848.jpg
8858.jpg
8868.jpg
8878.jpg
8898.jpg
8908.jpg
8918.jpg
8928.jpg
8938.jpg
8948.jpg
8958.jpg
8968.jpg
8978.jpg
8988.jpg
8998.jpg
9008.jpg
9018.jpg
9028.jpg
9038.jpg
9048.jpg
9058.jpg
9068.jpg
9078.jpg
908.jpg
9098.jpg
9118.jpg
9128.jpg
9138.jpg
9158.jpg
9168.jpg
9178.jpg
918.jpg
9188.jpg
9198.jpg
9208.jpg
9218.jpg
9228.jpg
9238.jpg
9248.jpg
9258.jpg
9278.jpg
928.jpg
9288.jpg
9308.jpg
9318.jpg
9358.jpg
9368.jpg
9378.jpg
938.jpg
9388.jpg
9408.jpg
9418.jpg
9428.jpg
9438.jpg
9448.jpg
9458.jpg
9468.jpg
9478.jpg
948.jpg
9488.jpg
9498.jpg
9508.jpg
9528.jpg
9538.jpg
9558.jpg
9568.jpg
9578.jpg
958.jpg
9588.jpg
9598.jpg
9608.jpg
9618.jpg
9628.jpg
9638.jpg
9648.jpg
9658.jpg
9668.jpg
9678.jpg
9688.jpg
9698.jpg
9708.jpg
9718.jpg
9728.jpg
9738.jpg
9748.jpg
9758.jpg
9768.jpg
9778.jpg
9788.jpg
9798.jpg
9808.jpg
9818.jpg
9828.jpg
9838.jpg
9848.jpg
9858.jpg
9868.jpg
9878.jpg
9888.jpg
9898.jpg
9908.jpg
9918.jpg
9928.jpg
9938.jpg
9948.jpg
9958.jpg
9968.jpg
9978.jpg
998.jpg
9988.jpg
9998.jpg
