10009.jpg
10019.jpg
10029.jpg
10049.jpg
10069.jpg
10079.jpg
10089.jpg
1009.jpg
10109.jpg
10119.jpg
10129.jpg
10139.jpg
10149.jpg
10159.jpg
10179.jpg
10189.jpg
10199.jpg
10209.jpg
10249.jpg
10259.jpg
10269.jpg
10279.jpg
10289.jpg
1029.jpg
10299.jpg
10319.jpg
10329.jpg
10339.jpg
10359.jpg
10379.jpg
10389.jpg
1039.jpg
10399.jpg
10409.jpg
10429.jpg
10439.jpg
10449.jpg
10469.jpg
10479.jpg
1049.jpg
10539.jpg
10559.jpg
10569.jpg
10589.jpg
10599.jpg
10609.jpg
10619.jpg
10629.jpg
10639.jpg
10649.jpg
10659.jpg
10669.jpg
10679.jpg
10689.jpg
1069.jpg
10699.jpg
10709.jpg
10719.jpg
10729.jpg
10739.jpg
10769.jpg
10779.jpg
10789.jpg
1079.jpg
10799.jpg
10809.jpg
10819.jpg
10829.jpg
10839.jpg
10849.jpg
10859.jpg
10879.jpg
10889.jpg
1089.jpg
10899.jpg
10919.jpg
10929.jpg
10939.jpg
10949.jpg
10969.jpg
10979.jpg
10989.jpg
1099.jpg
10999.jpg
11029.jpg
11039.jpg
11049.jpg
11059.jpg
11069.jpg
11089.jpg
1109.jpg
11099.jpg
11129.jpg
11139.jpg
11149.jpg
1119.jpg
11209.jpg
11219.jpg
11229.jpg
11239.jpg
11249.jpg
11259.jpg
11269.jpg
11279.jpg
11289.jpg
1129.jpg
11299.jpg
11309.jpg
11319.jpg
11329.jpg
11339.jpg
11349.jpg
11359.jpg
11369.jpg
11379.jpg
11389.jpg
1139.jpg
11399.jpg
11409.jpg
11419.jpg
11429.jpg
11439.jpg
11449.jpg
11459.jpg
11469.jpg
11489.jpg
1149.jpg
11499.jpg
11509.jpg
11519.jpg
11529.jpg
11539.jpg
11549.jpg
11559.jpg
11569.jpg
11579.jpg
11589.jpg
1159.jpg
11599.jpg
11609.jpg
11619.jpg
11629.jpg
11639.jpg
11649.jpg
11659.jpg
11679.jpg
1169.jpg
11699.jpg
11709.jpg
11719.jpg
11729.jpg
11739.jpg
1179.jpg
11829.jpg
11879.jpg
1189.jpg
11949.jpg
1199.jpg
12069.jpg
1209.jpg
12149.jpg
12159.jpg
12169.jpg
12189.jpg
12279.jpg
12289.jpg
1229.jpg
12319.jpg
12329.jpg
12349.jpg
12389.jpg
1239.jpg
12399.jpg
12489.jpg
12509.jpg
12519.jpg
12539.jpg
12549.jpg
12559.jpg
12569.jpg
1259.jpg
12609.jpg
12619.jpg
12649.jpg
12659.jpg
12689.jpg
12699.jpg
12709.jpg
12719.jpg
12729.jpg
12739.jpg
12749.jpg
12759.jpg
12769.jpg
12809.jpg
12859.jpg
12869.jpg
12879.jpg
1289.jpg
12919.jpg
12929.jpg
12939.jpg
12979.jpg
12989.jpg
1299.jpg
13029.jpg
13039.jpg
13059.jpg
13069.jpg
1309.jpg
13129.jpg
13139.jpg
13149.jpg
13169.jpg
13179.jpg
13189.jpg
1319.jpg
13219.jpg
13249.jpg
13269.jpg
13279.jpg
13289.jpg
13319.jpg
13329.jpg
13339.jpg
13349.jpg
13369.jpg
1339.jpg
13409.jpg
13419.jpg
13429.jpg
13469.jpg
13489.jpg
1349.jpg
13499.jpg
13509.jpg
13519.jpg
13549.jpg
13559.jpg
13569.jpg
13579.jpg
13589.jpg
13609.jpg
13629.jpg
1369.jpg
13729.jpg
13759.jpg
13799.jpg
13809.jpg
13859.jpg
13889.jpg
1389.jpg
13919.jpg
1399.jpg
13999.jpg
14049.jpg
14059.jpg
14089.jpg
1409.jpg
14099.jpg
14129.jpg
14139.jpg
14149.jpg
14159.jpg
14189.jpg
1419.jpg
14229.jpg
14269.jpg
14289.jpg
14299.jpg
14329.jpg
14369.jpg
14399.jpg
14409.jpg
14449.jpg
14469.jpg
14479.jpg
14499.jpg
14509.jpg
14519.jpg
14529.jpg
14539.jpg
14559.jpg
14579.jpg
14609.jpg
14649.jpg
14709.jpg
14729.jpg
14749.jpg
14789.jpg
14809.jpg
14819.jpg
14859.jpg
14869.jpg
14879.jpg
14919.jpg
14959.jpg
15009.jpg
15019.jpg
15099.jpg
15109.jpg
15119.jpg
15129.jpg
15169.jpg
15179.jpg
15189.jpg
15209.jpg
15219.jpg
15239.jpg
15269.jpg
15299.jpg
15309.jpg
15329.jpg
15339.jpg
15379.jpg
15419.jpg
15429.jpg
15459.jpg
15479.jpg
15489.jpg
15509.jpg
15529.jpg
15539.jpg
15549.jpg
15569.jpg
15589.jpg
15599.jpg
15609.jpg
15619.jpg
15639.jpg
15669.jpg
15679.jpg
15699.jpg
15729.jpg
15739.jpg
15759.jpg
15769.jpg
15779.jpg
1579.jpg
15809.jpg
15819.jpg
15829.jpg
15859.jpg
15889.jpg
1589.jpg
15899.jpg
15919.jpg
15929.jpg
15959.jpg
15969.jpg
16009.jpg
16019.jpg
16079.jpg
16099.jpg
16119.jpg
16149.jpg
16169.jpg
16189.jpg
16209.jpg
16219.jpg
16279.jpg
16289.jpg
16299.jpg
16319.jpg
16329.jpg
16349.jpg
16359.jpg
16379.jpg
16389.jpg
16409.jpg
16419.jpg
16529.jpg
16549.jpg
16559.jpg
16569.jpg
16599.jpg
16609.jpg
16619.jpg
16639.jpg
16649.jpg
16669.jpg
16709.jpg
16729.jpg
16739.jpg
16759.jpg
16819.jpg
16839.jpg
16849.jpg
16859.jpg
16889.jpg
16919.jpg
16949.jpg
16969.jpg
16979.jpg
16989.jpg
17049.jpg
17059.jpg
1709.jpg
17129.jpg
17139.jpg
17159.jpg
17169.jpg
17189.jpg
1719.jpg
17199.jpg
17209.jpg
17269.jpg
17279.jpg
1729.jpg
17309.jpg
17349.jpg
17359.jpg
17379.jpg
17389.jpg
1739.jpg
17419.jpg
17439.jpg
17479.jpg
1749.jpg
17499.jpg
17509.jpg
17529.jpg
17539.jpg
17549.jpg
17589.jpg
1759.jpg
17599.jpg
17609.jpg
17619.jpg
17629.jpg
17669.jpg
17679.jpg
17689.jpg
1769.jpg
17699.jpg
17719.jpg
17729.jpg
17739.jpg
17749.jpg
17759.jpg
17769.jpg
17779.jpg
17789.jpg
17799.jpg
17809.jpg
17829.jpg
17839.jpg
17849.jpg
1789.jpg
17909.jpg
17929.jpg
17939.jpg
17959.jpg
17979.jpg
17989.jpg
1799.jpg
17999.jpg
18009.jpg
18049.jpg
18079.jpg
18089.jpg
1809.jpg
18099.jpg
18109.jpg
18119.jpg
18129.jpg
18139.jpg
18149.jpg
18169.jpg
18179.jpg
1819.jpg
18199.jpg
18219.jpg
18229.jpg
18249.jpg
18259.jpg
18269.jpg
18279.jpg
1829.jpg
18329.jpg
18359.jpg
18369.jpg
1839.jpg
18399.jpg
18409.jpg
18419.jpg
18429.jpg
18439.jpg
18449.jpg
18459.jpg
18469.jpg
18479.jpg
18489.jpg
1849.jpg
18499.jpg
18509.jpg
18519.jpg
18579.jpg
18599.jpg
18609.jpg
18629.jpg
18639.jpg
18729.jpg
1879.jpg
18819.jpg
18829.jpg
18839.jpg
18849.jpg
18859.jpg
18869.jpg
18879.jpg
1889.jpg
18909.jpg
18939.jpg
18979.jpg
1899.jpg
18999.jpg
19009.jpg
19019.jpg
19029.jpg
19039.jpg
19049.jpg
19059.jpg
19069.jpg
19079.jpg
1909.jpg
19109.jpg
19129.jpg
19139.jpg
19159.jpg
19179.jpg
19189.jpg
1919.jpg
19209.jpg
19219.jpg
19239.jpg
19249.jpg
19259.jpg
19279.jpg
19289.jpg
1929.jpg
19339.jpg
19349.jpg
19359.jpg
19379.jpg
1939.jpg
19399.jpg
19409.jpg
19419.jpg
19459.jpg
19489.jpg
19509.jpg
19529.jpg
19579.jpg
19589.jpg
1959.jpg
19599.jpg
19619.jpg
19629.jpg
19639.jpg
19649.jpg
19659.jpg
19669.jpg
19679.jpg
19689.jpg
1969.jpg
19699.jpg
19719.jpg
19739.jpg
19749.jpg
19759.jpg
19769.jpg
19779.jpg
19789.jpg
19799.jpg
19819.jpg
19829.jpg
1989.jpg
19899.jpg
19949.jpg
19979.jpg
19989.jpg
20009.jpg
20019.jpg
20059.jpg
20079.jpg
20089.jpg
2009.jpg
20109.jpg
20139.jpg
20149.jpg
20159.jpg
20189.jpg
20239.jpg
20259.jpg
20269.jpg
20289.jpg
2029.jpg
20299.jpg
20349.jpg
2039.jpg
20429.jpg
20449.jpg
20459.jpg
20479.jpg
20489.jpg
2049.jpg
20499.jpg
20509.jpg
20529.jpg
20539.jpg
20549.jpg
20569.jpg
20579.jpg
2059.jpg
20609.jpg
20629.jpg
20639.jpg
20649.jpg
20669.jpg
20679.jpg
20689.jpg
20699.jpg
20719.jpg
20729.jpg
20759.jpg
20769.jpg
20789.jpg
2079.jpg
20799.jpg
20849.jpg
20859.jpg
20869.jpg
2089.jpg
20899.jpg
20909.jpg
20919.jpg
20929.jpg
20939.jpg
20949.jpg
20969.jpg
20979.jpg
2099.jpg
21009.jpg
21019.jpg
21029.jpg
21049.jpg
21069.jpg
21089.jpg
2109.jpg
21149.jpg
21179.jpg
2119.jpg
21209.jpg
21219.jpg
21239.jpg
21249.jpg
21279.jpg
2129.jpg
21319.jpg
21379.jpg
21389.jpg
2139.jpg
21419.jpg
21429.jpg
21459.jpg
21479.jpg
2149.jpg
21529.jpg
21549.jpg
21559.jpg
21569.jpg
21579.jpg
21589.jpg
2159.jpg
21599.jpg
21609.jpg
21629.jpg
21669.jpg
21679.jpg
21689.jpg
2169.jpg
21709.jpg
21789.jpg
2179.jpg
21799.jpg
21809.jpg
21829.jpg
21849.jpg
21859.jpg
21869.jpg
2189.jpg
21909.jpg
21959.jpg
2199.jpg
22039.jpg
2209.jpg
22119.jpg
22129.jpg
22139.jpg
22159.jpg
22179.jpg
22189.jpg
2219.jpg
22199.jpg
22259.jpg
22269.jpg
22279.jpg
22289.jpg
2229.jpg
22309.jpg
22339.jpg
22349.jpg
22369.jpg
22379.jpg
2239.jpg
22419.jpg
22459.jpg
22489.jpg
22509.jpg
22519.jpg
22539.jpg
22569.jpg
22579.jpg
22589.jpg
2259.jpg
22599.jpg
22619.jpg
22629.jpg
22649.jpg
22659.jpg
22669.jpg
22679.jpg
2269.jpg
22699.jpg
22709.jpg
22719.jpg
22739.jpg
22749.jpg
22759.jpg
22779.jpg
22789.jpg
22799.jpg
22809.jpg
22819.jpg
22839.jpg
22849.jpg
22859.jpg
2289.jpg
22919.jpg
22959.jpg
22969.jpg
22989.jpg
22999.jpg
23029.jpg
23049.jpg
23059.jpg
2309.jpg
23139.jpg
23189.jpg
2319.jpg
23209.jpg
23229.jpg
23249.jpg
23289.jpg
2329.jpg
23309.jpg
23319.jpg
23329.jpg
23339.jpg
23349.jpg
23369.jpg
23379.jpg
23399.jpg
23409.jpg
23449.jpg
2349.jpg
23499.jpg
23509.jpg
23529.jpg
23579.jpg
23589.jpg
23609.jpg
23639.jpg
23649.jpg
23669.jpg
23679.jpg
2369.jpg
23729.jpg
23749.jpg
23759.jpg
2379.jpg
23819.jpg
23869.jpg
23879.jpg
2389.jpg
23929.jpg
23959.jpg
2399.jpg
23999.jpg
24019.jpg
24029.jpg
24039.jpg
24069.jpg
24089.jpg
24129.jpg
24149.jpg
24159.jpg
24169.jpg
2419.jpg
24199.jpg
24239.jpg
24249.jpg
24259.jpg
24269.jpg
2429.jpg
24299.jpg
2439.jpg
24399.jpg
24419.jpg
24429.jpg
24459.jpg
24479.jpg
24489.jpg
2449.jpg
24629.jpg
24639.jpg
24649.jpg
24659.jpg
24669.jpg
24679.jpg
24689.jpg
2469.jpg
24719.jpg
24739.jpg
24759.jpg
24849.jpg
2489.jpg
24909.jpg
24929.jpg
24939.jpg
24969.jpg
24979.jpg
25059.jpg
25099.jpg
25129.jpg
25149.jpg
25179.jpg
25209.jpg
25219.jpg
25229.jpg
25239.jpg
25249.jpg
25319.jpg
25349.jpg
25469.jpg
25479.jpg
25489.jpg
25499.jpg
25509.jpg
25619.jpg
25629.jpg
25639.jpg
25669.jpg
25719.jpg
25729.jpg
25739.jpg
25749.jpg
25759.jpg
25869.jpg
25889.jpg
25949.jpg
25959.jpg
25969.jpg
26029.jpg
26039.jpg
26049.jpg
26089.jpg
26119.jpg
26129.jpg
26139.jpg
26149.jpg
26169.jpg
26189.jpg
26249.jpg
26269.jpg
26279.jpg
26289.jpg
26299.jpg
26329.jpg
26339.jpg
26369.jpg
26429.jpg
26499.jpg
26509.jpg
26549.jpg
26589.jpg
26599.jpg
26619.jpg
26629.jpg
26659.jpg
26669.jpg
26709.jpg
26749.jpg
26809.jpg
26879.jpg
26889.jpg
26899.jpg
26909.jpg
26919.jpg
26929.jpg
26939.jpg
26949.jpg
26959.jpg
26979.jpg
26989.jpg
2699.jpg
26999.jpg
27009.jpg
27019.jpg
27039.jpg
27049.jpg
27089.jpg
27109.jpg
2719.jpg
27209.jpg
2729.jpg
27299.jpg
27329.jpg
27339.jpg
27359.jpg
27379.jpg
27429.jpg
27439.jpg
27459.jpg
27469.jpg
27479.jpg
27489.jpg
27509.jpg
27519.jpg
27569.jpg
27609.jpg
27619.jpg
27639.jpg
27649.jpg
27679.jpg
27689.jpg
2769.jpg
2779.jpg
2789.jpg
2799.jpg
2809.jpg
2819.jpg
2829.jpg
2839.jpg
2849.jpg
2859.jpg
2879.jpg
2889.jpg
2909.jpg
2919.jpg
2929.jpg
2939.jpg
2949.jpg
2959.jpg
2969.jpg
2979.jpg
2989.jpg
2999.jpg
30009.jpg
30019.jpg
30029.jpg
30039.jpg
30049.jpg
30059.jpg
30069.jpg
30079.jpg
30089.jpg
30099.jpg
30109.jpg
30119.jpg
30129.jpg
30139.jpg
30149.jpg
30159.jpg
30169.jpg
30179.jpg
30189.jpg
30199.jpg
30209.jpg
30219.jpg
30229.jpg
30239.jpg
30249.jpg
30259.jpg
30269.jpg
30279.jpg
30289.jpg
30299.jpg
30309.jpg
30319.jpg
30329.jpg
30339.jpg
30349.jpg
30369.jpg
30379.jpg
30399.jpg
30419.jpg
30429.jpg
30439.jpg
30449.jpg
30459.jpg
30489.jpg
30499.jpg
30509.jpg
30529.jpg
30539.jpg
30549.jpg
30559.jpg
30569.jpg
30579.jpg
30589.jpg
30609.jpg
30619.jpg
30629.jpg
30649.jpg
30659.jpg
30669.jpg
30679.jpg
30689.jpg
30699.jpg
30709.jpg
30729.jpg
30759.jpg
30769.jpg
30779.jpg
30799.jpg
30809.jpg
30819.jpg
30829.jpg
30839.jpg
30849.jpg
30859.jpg
30869.jpg
30879.jpg
30889.jpg
30899.jpg
30909.jpg
30919.jpg
30939.jpg
30949.jpg
30959.jpg
30969.jpg
30999.jpg
31009.jpg
31019.jpg
31029.jpg
31039.jpg
31049.jpg
31069.jpg
31089.jpg
3109.jpg
31099.jpg
31139.jpg
31149.jpg
31159.jpg
31169.jpg
31179.jpg
31199.jpg
31209.jpg
31219.jpg
31229.jpg
31239.jpg
31249.jpg
31259.jpg
31269.jpg
31279.jpg
31289.jpg
31309.jpg
31319.jpg
31329.jpg
31349.jpg
31369.jpg
31389.jpg
31409.jpg
31419.jpg
31429.jpg
31439.jpg
31449.jpg
31459.jpg
31469.jpg
31479.jpg
31489.jpg
31499.jpg
31509.jpg
31519.jpg
31529.jpg
31539.jpg
31549.jpg
31559.jpg
31569.jpg
31579.jpg
31589.jpg
31599.jpg
31619.jpg
31629.jpg
31639.jpg
31649.jpg
31659.jpg
31669.jpg
31679.jpg
31689.jpg
31699.jpg
31709.jpg
31719.jpg
31729.jpg
31739.jpg
31749.jpg
31759.jpg
31769.jpg
31779.jpg
31789.jpg
31809.jpg
31819.jpg
31829.jpg
31839.jpg
31849.jpg
31859.jpg
31869.jpg
31879.jpg
31889.jpg
3189.jpg
31899.jpg
31909.jpg
31919.jpg
31929.jpg
31939.jpg
31949.jpg
31959.jpg
31969.jpg
31979.jpg
31989.jpg
3199.jpg
32029.jpg
32039.jpg
32049.jpg
32059.jpg
32079.jpg
32089.jpg
3209.jpg
32099.jpg
32109.jpg
32119.jpg
32149.jpg
32159.jpg
32169.jpg
32179.jpg
32189.jpg
3219.jpg
32199.jpg
32209.jpg
32229.jpg
32239.jpg
32249.jpg
32259.jpg
32269.jpg
32279.jpg
32289.jpg
3229.jpg
32299.jpg
32309.jpg
32329.jpg
32339.jpg
32349.jpg
32359.jpg
32369.jpg
32379.jpg
32389.jpg
32399.jpg
32409.jpg
32419.jpg
32429.jpg
32439.jpg
32449.jpg
32459.jpg
32469.jpg
32479.jpg
32489.jpg
3249.jpg
32579.jpg
32589.jpg
3259.jpg
32609.jpg
32639.jpg
32649.jpg
32659.jpg
32669.jpg
32679.jpg
3269.jpg
32699.jpg
32709.jpg
32719.jpg
32769.jpg
32789.jpg
3279.jpg
32799.jpg
32809.jpg
32819.jpg
32829.jpg
32849.jpg
32859.jpg
32869.jpg
32879.jpg
32889.jpg
3289.jpg
3299.jpg
3309.jpg
3319.jpg
3329.jpg
33369.jpg
33379.jpg
33389.jpg
3339.jpg
33409.jpg
33419.jpg
33429.jpg
33439.jpg
33449.jpg
33459.jpg
33469.jpg
33479.jpg
33489.jpg
3349.jpg
33499.jpg
33509.jpg
33519.jpg
33529.jpg
3359.jpg
3369.jpg
3409.jpg
34129.jpg
34139.jpg
34149.jpg
34169.jpg
34199.jpg
3479.jpg
3489.jpg
3499.jpg
3509.jpg
3519.jpg
3529.jpg
3539.jpg
3549.jpg
35569.jpg
35579.jpg
35589.jpg
3559.jpg
35599.jpg
35609.jpg
35619.jpg
35629.jpg
35639.jpg
35649.jpg
35659.jpg
35669.jpg
35679.jpg
35689.jpg
3569.jpg
35719.jpg
35729.jpg
35739.jpg
35759.jpg
35769.jpg
35779.jpg
35789.jpg
3579.jpg
35799.jpg
35819.jpg
35839.jpg
35859.jpg
35869.jpg
35889.jpg
3589.jpg
35899.jpg
35909.jpg
35919.jpg
35929.jpg
35939.jpg
35969.jpg
35979.jpg
35989.jpg
3599.jpg
35999.jpg
36009.jpg
36019.jpg
36029.jpg
36049.jpg
36059.jpg
36069.jpg
36079.jpg
3609.jpg
3619.jpg
3629.jpg
3639.jpg
3649.jpg
3659.jpg
3669.jpg
37049.jpg
37069.jpg
37079.jpg
37089.jpg
37099.jpg
37129.jpg
37139.jpg
37149.jpg
37159.jpg
37169.jpg
37179.jpg
37189.jpg
37209.jpg
37219.jpg
37229.jpg
37239.jpg
37249.jpg
37259.jpg
37269.jpg
37289.jpg
3729.jpg
37299.jpg
37309.jpg
37319.jpg
37329.jpg
37339.jpg
37349.jpg
37359.jpg
37369.jpg
37379.jpg
37389.jpg
37409.jpg
37419.jpg
37429.jpg
37439.jpg
37449.jpg
37459.jpg
37469.jpg
37479.jpg
37489.jpg
37499.jpg
37509.jpg
37519.jpg
37529.jpg
37539.jpg
37549.jpg
37559.jpg
37569.jpg
37579.jpg
37589.jpg
3759.jpg
37599.jpg
37609.jpg
37629.jpg
37639.jpg
37649.jpg
37659.jpg
37669.jpg
37679.jpg
37689.jpg
3769.jpg
37699.jpg
37709.jpg
37719.jpg
37729.jpg
37739.jpg
37749.jpg
37759.jpg
37769.jpg
37779.jpg
37789.jpg
37799.jpg
37809.jpg
37819.jpg
37829.jpg
37839.jpg
37849.jpg
37859.jpg
37869.jpg
37879.jpg
37889.jpg
37899.jpg
37919.jpg
37939.jpg
37949.jpg
37959.jpg
37969.jpg
37979.jpg
37989.jpg
37999.jpg
38009.jpg
38019.jpg
38029.jpg
38039.jpg
38049.jpg
38059.jpg
38079.jpg
38089.jpg
3809.jpg
38109.jpg
38119.jpg
38129.jpg
38139.jpg
38149.jpg
38159.jpg
38169.jpg
38179.jpg
38189.jpg
38199.jpg
38209.jpg
38219.jpg
38249.jpg
38269.jpg
38279.jpg
3829.jpg
3839.jpg
3859.jpg
38629.jpg
38649.jpg
38679.jpg
38689.jpg
38709.jpg
38719.jpg
38729.jpg
38739.jpg
38759.jpg
38769.jpg
38779.jpg
38809.jpg
38819.jpg
38839.jpg
38859.jpg
38879.jpg
38889.jpg
38899.jpg
38909.jpg
38919.jpg
38929.jpg
38939.jpg
38949.jpg
38959.jpg
38969.jpg
38979.jpg
38989.jpg
38999.jpg
39009.jpg
39019.jpg
39029.jpg
39039.jpg
39049.jpg
39059.jpg
39069.jpg
39079.jpg
39089.jpg
39099.jpg
39109.jpg
39119.jpg
39129.jpg
39139.jpg
39149.jpg
39159.jpg
39169.jpg
39179.jpg
39189.jpg
39199.jpg
39209.jpg
39219.jpg
39229.jpg
39239.jpg
39249.jpg
39269.jpg
39279.jpg
39299.jpg
39309.jpg
39319.jpg
39329.jpg
39339.jpg
39349.jpg
39359.jpg
39369.jpg
39379.jpg
39389.jpg
39399.jpg
39419.jpg
39429.jpg
39439.jpg
39459.jpg
39469.jpg
39479.jpg
39489.jpg
39499.jpg
39509.jpg
39519.jpg
39529.jpg
39539.jpg
39559.jpg
39569.jpg
39579.jpg
39589.jpg
39599.jpg
39609.jpg
39619.jpg
39629.jpg
39639.jpg
39649.jpg
39659.jpg
39669.jpg
39679.jpg
39689.jpg
39699.jpg
39709.jpg
39719.jpg
39729.jpg
39739.jpg
39749.jpg
39759.jpg
39769.jpg
39779.jpg
39789.jpg
3979.jpg
39799.jpg
39809.jpg
39819.jpg
39829.jpg
39839.jpg
39849.jpg
39859.jpg
39869.jpg
39879.jpg
39889.jpg
39899.jpg
39909.jpg
39919.jpg
39929.jpg
39939.jpg
39949.jpg
39959.jpg
39969.jpg
39979.jpg
39989.jpg
39999.jpg
40009.jpg
40019.jpg
40029.jpg
40039.jpg
40049.jpg
40059.jpg
40069.jpg
40079.jpg
40089.jpg
4009.jpg
40099.jpg
40109.jpg
40119.jpg
40129.jpg
40139.jpg
40149.jpg
40159.jpg
40169.jpg
40179.jpg
40189.jpg
4019.jpg
40209.jpg
40229.jpg
40239.jpg
40249.jpg
40259.jpg
40269.jpg
40279.jpg
40289.jpg
40299.jpg
40309.jpg
40339.jpg
40359.jpg
40369.jpg
40379.jpg
40389.jpg
4039.jpg
40399.jpg
40409.jpg
40419.jpg
40429.jpg
40439.jpg
40449.jpg
40459.jpg
40469.jpg
40479.jpg
40489.jpg
4049.jpg
40499.jpg
40509.jpg
40519.jpg
40529.jpg
40539.jpg
40549.jpg
40559.jpg
40569.jpg
40579.jpg
40589.jpg
40599.jpg
40609.jpg
40629.jpg
40639.jpg
40649.jpg
40659.jpg
40669.jpg
40689.jpg
4089.jpg
4119.jpg
4169.jpg
4189.jpg
4219.jpg
4239.jpg
4249.jpg
4259.jpg
4269.jpg
4279.jpg
4289.jpg
4299.jpg
4319.jpg
4329.jpg
4349.jpg
4419.jpg
4429.jpg
4439.jpg
4449.jpg
4459.jpg
4489.jpg
4499.jpg
4559.jpg
4569.jpg
4619.jpg
4629.jpg
4639.jpg
4709.jpg
4719.jpg
4729.jpg
4739.jpg
4749.jpg
4759.jpg
4769.jpg
4779.jpg
4799.jpg
4829.jpg
4849.jpg
4859.jpg
4869.jpg
4879.jpg
4889.jpg
4899.jpg
49.jpg
4919.jpg
4939.jpg
4969.jpg
4979.jpg
4989.jpg
4999.jpg
5009.jpg
5019.jpg
5029.jpg
5039.jpg
5059.jpg
5069.jpg
5079.jpg
5089.jpg
5099.jpg
5109.jpg
5129.jpg
5139.jpg
5149.jpg
5159.jpg
5169.jpg
5179.jpg
5189.jpg
5199.jpg
59.jpg
6209.jpg
6219.jpg
6229.jpg
6239.jpg
6249.jpg
6289.jpg
6299.jpg
6349.jpg
6359.jpg
6369.jpg
6379.jpg
6409.jpg
6419.jpg
6429.jpg
6439.jpg
6459.jpg
6469.jpg
6479.jpg
6539.jpg
6549.jpg
6559.jpg
6579.jpg
6619.jpg
6629.jpg
6639.jpg
6649.jpg
6679.jpg
6689.jpg
669.jpg
6699.jpg
6719.jpg
6739.jpg
6749.jpg
6779.jpg
679.jpg
6819.jpg
6839.jpg
6849.jpg
6869.jpg
6879.jpg
6889.jpg
689.jpg
6899.jpg
6909.jpg
6929.jpg
6939.jpg
6949.jpg
6959.jpg
6969.jpg
6979.jpg
7009.jpg
7029.jpg
7039.jpg
7059.jpg
7069.jpg
7089.jpg
709.jpg
7129.jpg
7139.jpg
7149.jpg
7159.jpg
7169.jpg
7179.jpg
7189.jpg
719.jpg
7199.jpg
7209.jpg
7219.jpg
7239.jpg
7249.jpg
7259.jpg
7269.jpg
7279.jpg
7289.jpg
7299.jpg
7309.jpg
7319.jpg
7329.jpg
7339.jpg
7349.jpg
7359.jpg
7369.jpg
7379.jpg
7389.jpg
739.jpg
7399.jpg
7409.jpg
7419.jpg
7429.jpg
7439.jpg
7449.jpg
7459.jpg
7469.jpg
7479.jpg
7489.jpg
7519.jpg
7529.jpg
7539.jpg
7549.jpg
7559.jpg
7569.jpg
7579.jpg
7589.jpg
7599.jpg
7609.jpg
7659.jpg
7669.jpg
7679.jpg
7689.jpg
7699.jpg
7709.jpg
7719.jpg
7729.jpg
7739.jpg
7749.jpg
7779.jpg
7789.jpg
779.jpg
7799.jpg
7809.jpg
7819.jpg
7829.jpg
7849.jpg
7859.jpg
7869.jpg
7889.jpg
789.jpg
7909.jpg
7919.jpg
7929.jpg
7939.jpg
7949.jpg
7969.jpg
7979.jpg
7989.jpg
799.jpg
7999.jpg
8009.jpg
8019.jpg
8039.jpg
8049.jpg
8069.jpg
8079.jpg
8089.jpg
809.jpg
8099.jpg
8109.jpg
8119.jpg
8129.jpg
8139.jpg
8149.jpg
8159.jpg
8169.jpg
819.jpg
8199.jpg
8209.jpg
8229.jpg
8239.jpg
8249.jpg
8259.jpg
8279.jpg
8289.jpg
829.jpg
8299.jpg
8309.jpg
8319.jpg
8329.jpg
8339.jpg
8349.jpg
8359.jpg
8369.jpg
8379.jpg
8389.jpg
8409.jpg
8419.jpg
8429.jpg
8439.jpg
8449.jpg
8469.jpg
8479.jpg
8489.jpg
849.jpg
8519.jpg
8529.jpg
8539.jpg
8549.jpg
8559.jpg
8569.jpg
8579.jpg
859.jpg
8599.jpg
8619.jpg
8629.jpg
8639.jpg
8659.jpg
8669.jpg
8679.jpg
8689.jpg
869.jpg
8699.jpg
8709.jpg
8719.jpg
8739.jpg
8749.jpg
8769.jpg
879.jpg
8799.jpg
8809.jpg
8819.jpg
8829.jpg
8839.jpg
8849.jpg
8859.jpg
8869.jpg
8879.jpg
8889.jpg
8899.jpg
8919.jpg
8929.jpg
8939.jpg
8949.jpg
8959.jpg
8979.jpg
8989.jpg
899.jpg
9009.jpg
9019.jpg
9029.jpg
9039.jpg
9049.jpg
9059.jpg
9069.jpg
9079.jpg
9089.jpg
909.jpg
9099.jpg
9119.jpg
9129.jpg
9139.jpg
9149.jpg
9159.jpg
9169.jpg
9179.jpg
9189.jpg
919.jpg
9199.jpg
9209.jpg
9219.jpg
9229.jpg
9239.jpg
9249.jpg
9259.jpg
9279.jpg
9289.jpg
929.jpg
9299.jpg
9319.jpg
9329.jpg
9339.jpg
9359.jpg
9369.jpg
9379.jpg
9389.jpg
939.jpg
9409.jpg
9419.jpg
9429.jpg
9439.jpg
9449.jpg
9459.jpg
9469.jpg
9479.jpg
949.jpg
9499.jpg
9509.jpg
9519.jpg
9529.jpg
9539.jpg
9549.jpg
9559.jpg
9569.jpg
9589.jpg
959.jpg
9599.jpg
9609.jpg
9619.jpg
9629.jpg
9639.jpg
9649.jpg
9659.jpg
9669.jpg
9679.jpg
9689.jpg
969.jpg
9699.jpg
9709.jpg
9729.jpg
9739.jpg
9749.jpg
9759.jpg
9769.jpg
9779.jpg
9789.jpg
9799.jpg
9809.jpg
9819.jpg
9829.jpg
9839.jpg
9849.jpg
9859.jpg
9869.jpg
9879.jpg
9889.jpg
9899.jpg
9919.jpg
9929.jpg
9939.jpg
9969.jpg
9979.jpg
9989.jpg
999.jpg
9999.jpg
